Machine Learning Supplementary Material - 2 Linear Models
…
3.3.2.2 Exercise 2b ii:

As a next step, we want to create a so-called recipe. According to the R Documentation, a recipe is a description of the steps to be applied to a data set in order to prepare it for data analysis. So a recipe can be thought of figuratively as a sequential procedure to cook our model!

In this exercise, our recipe is rather simple. Create a recipe called lm_recipe by using the recipe function. As arguments for the recipe function, you can pass the following formula. The second argument concerns the data that is given by the data_train dataset in our case.

formula <- totalRent ~ livingSpace

If calling the lm_recipe object returns the same output as the one you can find below, you have solved this exercise correctly!

lm_recipe <- recipe(formula, data = data_train)

lm_recipe %>% prep %>% bake(data_train)

# A tibble: 179 × 2
   livingSpace totalRent
         <dbl>     <dbl>
 1        55         710
 2        40         620
 3        53         666
 4        87        1282
 5        75         950
 6       121        1470
 7        60.8      1060
 8       105        1285
 9        58.1       974
10        59         825
# ℹ 169 more rows
…
