Machine Learning Supplementary Material - 3 Regularization
…
last_glm_fit %>%
  extract_fit_parsnip %>%
  tidy %>%
  #################
  ##Continue Here##
  #################

last_glm_fit %>%
  extract_fit_parsnip %>%
  tidy %>% 
  filter(estimate > 0) %>%
  arrange(desc(estimate))

# A tibble: 31 × 3
   term           estimate penalty
   <chr>             <dbl>   <dbl>
 1 (Intercept)      1648.     10.5
 2 livingSpace       553.     10.5
 3 interiorQual      120.     10.5
 4 geo_plz_X80538     43.9    10.5
 5 geo_plz_X80804     40.6    10.5
 6 newlyConst         38.4    10.5
 7 lift               38.2    10.5
 8 condition          34.5    10.5
 9 hasKitchen         34.5    10.5
10 geo_plz_X80333     33.7    10.5
# ℹ 21 more rows

last_glm_fit %>%
  extract_fit_parsnip %>%
  tidy %>% 
  filter(estimate  == 0) %>%
  select(term)

# A tibble: 35 × 1
   term          
   <chr>         
 1 balcony       
 2 noRooms       
 3 garden        
 4 geo_plz_X80339
 5 geo_plz_X80635
 6 geo_plz_X80636
 7 geo_plz_X80637
 8 geo_plz_X80639
 9 geo_plz_X80643
10 geo_plz_X80673
# ℹ 25 more rows
…
